2014/12/28 05:37:28.621-0500,mohawk.MohawkMain,setupUserPreferenceOptions,FINE,[OPTION] Setting the console's maximum width
2014/12/28 05:37:28.637-0500,mohawk.MohawkMain,setupUserPreferenceOptions,FINE,[OPTION] Default Line String Used
2014/12/28 05:37:28.638-0500,mohawk.MohawkMain,setupSmvSpecOptions,FINE,[OPTION] Using a specific SMV File: test3.spec.smv
2014/12/28 05:37:28.638-0500,mohawk.MohawkMain,setupSmvSpecOptions,FINE,[OPTION] Using a specific SPEC File: ./data/testcases/mixed/test3.spec
2014/12/28 05:37:28.638-0500,mohawk.MohawkMain,setupSmvSpecOptions,FINE,[OPTION] Using the default SPEC File Extension: .spec
2014/12/28 05:37:28.638-0500,mohawk.MohawkMain,setupSmvSpecOptions,FINE,[OPTION] Bulk SPEC File inclusion: Disabled
2014/12/28 05:37:28.638-0500,mohawk.MohawkMain,setupSmvSpecOptions,FINE,[OPTION] Bulk SPEC File inclusion: Disabled
2014/12/28 05:37:28.639-0500,mohawk.MohawkMain,setupResultOptions,INFO,Results File: latestMohawkResults.csv
2014/12/28 05:37:28.639-0500,mohawk.MohawkMain,main,INFO,[ACTION] Run paramter detected
2014/12/28 05:37:28.641-0500,mohawk.MohawkMain,main,INFO,[ACTION] Will convert and then execute the testcase provided
2014/12/28 05:37:28.641-0500,mohawk.testing.TestingSuite,runTests(),FINER,ENTRY
2014/12/28 05:37:28.642-0500,mohawk.helper.SMVSpecHelper,addSpecFile,INFO,[FILE IO] Using SPEC File: D:\Work\Masters\workspace\Mohawk 2.0\data\testcases\mixed\test3.spec
2014/12/28 05:39:28.669-0500,mohawk.testing.TestingSuite,runTests,WARNING,[TIMEOUT] Mohawk has timed out for SPEC file: D:\Work\Masters\workspace\Mohawk 2.0\.\data\testcases\mixed\test3.spec
2014/12/28 05:41:28.672-0500,mohawk.testing.TestingSuite,runTests,WARNING,[TIMEOUT] Mohawk has timed out for SPEC file: D:\Work\Masters\workspace\Mohawk 2.0\.\data\testcases\mixed\test3.spec
2014/12/28 05:41:28.672-0500,mohawk.testing.TestingSuite,runTests(),FINER,RETURN
2014/12/28 05:41:28.672-0500,mohawk.MohawkMain,main,INFO,[TIMING] D:\Work\Masters\workspace\Mohawk 2.0\.\data\testcases\mixed\test3.spec: -120003ms - smvHelper.loadSpecFiles: 1ms - totalTime: 240031ms
